<?xml version="1.0" encoding="utf-8"?>
<!-- Generator: Adobe Illustrator 17.1.0, SVG Export Plug-In . SVG Version: 6.00 Build 0)  -->
<!DOCTYPE svg PUBLIC "-//W3C//DTD SVG 1.1//EN" "http://www.w3.org/Graphics/SVG/1.1/DTD/svg11.dtd">
<svg version="1.1" id="Ebene_1" xmlns="http://www.w3.org/2000/svg" xmlns:xlink="http://www.w3.org/1999/xlink" x="0px" y="0px"
	 viewBox="0 0 35 63" enable-background="new 0 0 35 63" xml:space="preserve">
<rect x="1" y="1" fill="#FFD53B" width="33" height="61"/>
<g>
	<defs>
		<rect id="SVGID_1_" y="0" width="35" height="63"/>
	</defs>
	<clipPath id="SVGID_2_">
		<use xlink:href="#SVGID_1_"  overflow="visible"/>
	</clipPath>
	<rect x="1" y="1" clip-path="url(#SVGID_2_)" fill="none" stroke="#FFFFFF" stroke-width="2" width="33" height="61"/>
</g>
<polygon points="15.7,31.5 7.5,39.6 7.5,23.3 "/>
</svg>
