<?xml version="1.0" encoding="utf-8"?>
<!-- Generator: Adobe Illustrator 17.0.0, SVG Export Plug-In . SVG Version: 6.00 Build 0)  -->
<!DOCTYPE svg PUBLIC "-//W3C//DTD SVG 1.1 Tiny//EN" "http://www.w3.org/Graphics/SVG/1.1/DTD/svg11-tiny.dtd">
<svg version="1.1" baseProfile="tiny" id="Ebene_1" xmlns="http://www.w3.org/2000/svg" xmlns:xlink="http://www.w3.org/1999/xlink"
	 x="0px" y="0px" width="35px" height="29.11px" viewBox="0 0 35 29.11" xml:space="preserve">
<g>
	<path fill="#FFFFFF" d="M17.5,2C11.71,2,7,6.711,7,12.5S11.71,23,17.5,23C23.29,23,28,18.29,28,12.5S23.29,2,17.5,2z M17.5,19.95
		c-4.128,0-7.475-3.347-7.475-7.475S13.372,5,17.5,5s7.475,3.347,7.475,7.475S21.628,19.95,17.5,19.95z"/>
	<path fill="#808080" d="M17.5,0C10.607,0,5,5.608,5,12.5C5,19.392,10.607,25,17.5,25S30,19.392,30,12.5C30,5.608,24.393,0,17.5,0z
		 M17.5,23C11.71,23,7,18.29,7,12.5S11.71,2,17.5,2C23.29,2,28,6.711,28,12.5S23.29,23,17.5,23z"/>
	<circle fill="#808080" cx="17.5" cy="12.475" r="7.475"/>
</g>
</svg>
