<?xml version="1.0" encoding="utf-8"?>
<!-- Generator: Adobe Illustrator 17.0.0, SVG Export Plug-In . SVG Version: 6.00 Build 0)  -->
<!DOCTYPE svg PUBLIC "-//W3C//DTD SVG 1.1 Tiny//EN" "http://www.w3.org/Graphics/SVG/1.1/DTD/svg11-tiny.dtd">
<svg version="1.1" baseProfile="tiny" id="Ebene_1" xmlns="http://www.w3.org/2000/svg" xmlns:xlink="http://www.w3.org/1999/xlink"
	 x="0px" y="0px" width="1177px" height="248px" viewBox="0 0 1177 248" xml:space="preserve">
<g>
	<path fill="#FFE596" d="M1118.43,5.898L6,46.629v0.001l7.655,77.855L25.631,243.89c0,0,346.088-124.188,756.656-136.809
		c302.241-9.29,370.734,25.753,385.839,44.892L1118.439,5.898H1118.43z"/>
	<path fill="#FFE596" d="M1168.126,151.973l3.972,11.677C1172.098,163.65,1173.54,158.832,1168.126,151.973z"/>
</g>
</svg>
