<?xml version="1.0" encoding="utf-8"?>
<!-- Generator: Adobe Illustrator 17.0.0, SVG Export Plug-In . SVG Version: 6.00 Build 0)  -->
<!DOCTYPE svg PUBLIC "-//W3C//DTD SVG 1.1 Tiny//EN" "http://www.w3.org/Graphics/SVG/1.1/DTD/svg11-tiny.dtd">
<svg version="1.1" baseProfile="tiny" id="Ebene_1" xmlns="http://www.w3.org/2000/svg" xmlns:xlink="http://www.w3.org/1999/xlink"
	 x="0px" y="0px" width="98px" height="99px" viewBox="0 0 98 99" xml:space="preserve">
<g>
	<path fill="#3F3E41" d="M50.238,6.246c-3.156,0-6.333,0.35-9.443,1.039c-11.328,2.512-21,9.284-27.234,19.069
		C7.327,36.14,5.276,47.768,7.788,59.096c4.374,19.728,22.191,34.046,42.367,34.046h0c3.155,0,6.333-0.35,9.442-1.039
		c11.328-2.512,21-9.283,27.234-19.069c6.234-9.785,8.284-21.413,5.772-32.741C88.231,20.565,70.414,6.246,50.238,6.246z"/>
	<path fill="#FFCC00" d="M50.238,4.246c-3.301,0-6.624,0.366-9.876,1.087C28.513,7.96,18.396,15.044,11.874,25.28
		c-6.521,10.236-8.666,22.4-6.039,34.25c4.575,20.635,23.213,35.612,44.319,35.612c0,0,0,0,0,0c3.301,0,6.624-0.365,9.876-1.086
		c11.849-2.628,21.966-9.712,28.487-19.947c6.521-10.236,8.666-22.399,6.039-34.249C89.982,19.224,71.344,4.246,50.238,4.246z
		 M86.832,73.033c-6.234,9.786-15.906,16.558-27.234,19.069c-3.109,0.689-6.287,1.039-9.442,1.039h0
		c-20.176,0-37.994-14.318-42.367-34.046C5.276,47.768,7.327,36.14,13.561,26.354c6.234-9.786,15.906-16.558,27.234-19.069
		c3.11-0.689,6.287-1.039,9.443-1.039c20.176,0,37.993,14.319,42.366,34.046C95.116,51.62,93.066,63.248,86.832,73.033z"/>
</g>
<text transform="matrix(0.9763 -0.2164 0.2164 0.9763 21.9072 52.7934)" fill="#FFCC00" font-family="'MyriadPro-Regular'" font-size="24.0557">–</text>
<text transform="matrix(0.9763 -0.2164 0.2164 0.9763 33.6499 50.1901)" fill="#FFCC00" font-family="'MyriadPro-Regular'" font-size="24.0557">1</text>
<text transform="matrix(0.9763 -0.2164 0.2164 0.9763 45.6977 47.5192)" fill="#FFCC00" font-family="'MyriadPro-Regular'" font-size="24.0557">5</text>
<text transform="matrix(0.9763 -0.2164 0.2164 0.9763 57.7455 44.8483)" fill="#FFCC00" font-family="'MyriadPro-Regular'" font-size="24.0557"> </text>
<text transform="matrix(0.9763 -0.2164 0.2164 0.9763 58.9897 44.5724)" fill="#FFCC00" font-family="'MyriadPro-Regular'" font-size="24.0557">%</text>
<text transform="matrix(0.9763 -0.2164 0.2164 0.9763 22.3837 75.5043)" fill="#FFCC00" font-family="'MyriadPro-Regular'" font-size="24.0557">R</text>
<text transform="matrix(0.9763 -0.2164 0.2164 0.9763 35.2772 72.6459)" fill="#FFCC00" font-family="'MyriadPro-Regular'" font-size="24.0557">a</text>
<text transform="matrix(0.9763 -0.2164 0.2164 0.9763 46.5971 70.1364)" fill="#FFCC00" font-family="'MyriadPro-Regular'" font-size="24.0557">b</text>
<text transform="matrix(0.9763 -0.2164 0.2164 0.9763 59.9596 67.174)" fill="#FFCC00" font-family="'MyriadPro-Regular'" font-size="24.0557">a</text>
<text transform="matrix(0.9763 -0.2164 0.2164 0.9763 71.1856 64.6852)" fill="#FFCC00" font-family="'MyriadPro-Regular'" font-size="24.0557">t</text>
<text transform="matrix(0.9763 -0.2164 0.2164 0.9763 78.9593 62.9619)" fill="#FFCC00" font-family="'MyriadPro-Regular'" font-size="24.0557">t</text>
</svg>
