<?xml version="1.0" encoding="utf-8"?>
<!-- Generator: Adobe Illustrator 17.0.0, SVG Export Plug-In . SVG Version: 6.00 Build 0)  -->
<!DOCTYPE svg PUBLIC "-//W3C//DTD SVG 1.1 Tiny//EN" "http://www.w3.org/Graphics/SVG/1.1/DTD/svg11-tiny.dtd">
<svg version="1.1" baseProfile="tiny" id="Ebene_1" xmlns="http://www.w3.org/2000/svg" xmlns:xlink="http://www.w3.org/1999/xlink"
	 x="0px" y="0px" width="91px" height="91px" viewBox="0 0 91 91" xml:space="preserve">
<path fill="#EDC802" d="M83.329,5.889H9.674C7.645,5.889,6,7.531,6,9.562v73.654c0,2.027,1.645,3.674,3.674,3.674h73.655
	c2.029,0,3.674-1.647,3.674-3.674V9.562C87.003,7.531,85.358,5.889,83.329,5.889z"/>
<image width="324" height="218" xlink:href="71EF1F8210E6255C.png"  transform="matrix(0.24 0 0 0.24 8.02 8.9983)">
</image>
<polygon fill="#FFFFFF" points="12.725,59.645 13.103,59.591 14.014,59.023 14.115,58.96 14.094,58.948 14.699,58.398 
	15.673,59.137 16.631,59.91 17.303,61.132 18.441,61.216 18.4,62.355 19.5,62.254 20.466,61.187 20.785,59.947 20.487,58.713 
	21.491,59.192 23.457,59.175 24.415,59.124 25.482,60.443 26.628,61.01 27.628,60.46 28.653,60.36 29.615,59.385 30.682,59.343 
	31.66,58.225 32.802,58.28 34.365,57.868 36.461,57.902 36.574,56.709 37.595,56.709 38.633,56.625 39.662,57.469 40.876,56.797 
	41.875,56.873 42.023,58.044 43.06,59.099 44.068,59.503 44.467,58.209 44.736,57.033 43.694,56.285 43.866,54.365 43.123,53.194 
	41.661,51.513 42.174,50.202 43.4,48.69 44.812,47.952 46.168,47.62 46.932,46.884 47.403,45.936 47.416,44.554 49.15,44.436 
	50.133,44.461 50.726,43.31 50.726,41.638 52.254,42.369 52.607,43.511 54.439,43.94 55.43,44.188 56.425,43.075 57.383,43.365 
	58.4,43.759 58.714,42.441 59.445,41.121 60.563,41.121 60.886,39.433 60.777,38.265 62.29,37.875 63.263,38.349 64.263,38.034 
	65.305,38.421 66.523,38.996 67.649,39.349 68.598,39.311 70.467,40.432 71.774,40.479 73.034,40.559 74.012,39.639 74.987,39.53 
	75.957,39.849 77.17,40.449 78.225,40.58 78.519,41.912 78.608,41.945 78.419,42.441 77.839,44.012 77.944,45.401 78.712,46.154 
	79.187,47.561 80.531,48.594 81.342,49.652 80.846,51.241 80.628,52.487 80.88,53.807 79.523,54.206 78.578,54.382 77.536,53.748 
	76.036,53.827 76.003,55.054 77.297,55.436 77.684,56.709 76.978,57.91 75.705,59.229 75.923,60.317 75.928,61.485 76.137,62.64 
	76.117,63.812 75.05,63.833 74.118,64.765 73.063,65.862 72.113,66.383 72.046,67.563 70.959,67.903 69.85,68.277 68.842,68.727 
	67.909,69.436 66.75,69.285 65.057,69.499 63.721,69.449 62.692,69.923 61.659,70.465 61.058,71.692 59.991,72.448 58.967,73.284 
	57.941,72.856 55.413,72.792 54.287,72.25 52.947,71.956 51.939,72.061 51.175,71.939 50.889,71.969 49.075,71.448 48.096,71.465 
	46.584,71.637 45.207,71.154 42.485,70.763 41.51,70.557 40.216,70.541 39.036,70.142 37.734,68.856 37.528,67.689 36.369,67.273 
	36.192,66.147 36.209,65.017 34.63,65.58 33.525,66.214 32.244,66.261 31.219,66.189 30.043,66.294 28.829,66.395 27.384,66.832 
	26.628,68.076 25.649,69.348 24.511,69.289 23.536,68.592 22.52,68.159 20.895,68.142 20.269,66.353 19.168,66.694 18.152,68.327 
	17.11,68.138 15.762,67.483 15.493,66.345 13.637,65.563 12.826,65.551 12.964,64.232 12.838,63.043 12.414,62.27 12.393,62.254 
	12.649,61.901 12.91,60.863 12.666,59.653 "/>
<text transform="matrix(1 0 0 1 44.311 51.1703)" fill="#FFCC00" font-family="'MyriadPro-Regular'" font-size="9.804">Ö</text>
<text transform="matrix(1 0 0 1 50.9287 51.1703)" fill="#FFCC00" font-family="'MyriadPro-Regular'" font-size="9.804">A</text>
<text transform="matrix(1 0 0 1 56.8994 51.1703)" fill="#FFCC00" font-family="'MyriadPro-Regular'" font-size="9.804">M</text>
<text transform="matrix(1 0 0 1 64.6934 51.1703)" fill="#FFCC00" font-family="'MyriadPro-Regular'" font-size="9.804">T</text>
<text transform="matrix(1 0 0 1 69.3013 51.1703)" fill="#FFCC00" font-family="'MyriadPro-Regular'" font-size="9.804">C</text>
</svg>
